Data Visualisation - Tuition Data Analysis
…
                news

                code

                analysis

      Author

               Tani Barkat 

      Published

        February 6, 2023

# A tibble: 209,012 × 7
   name                              state total_…¹  year campus net_c…² incom…³
   <chr>                             <chr>    <dbl> <dbl> <chr>    <dbl> <chr>  
 1 Piedmont International University NC       20174  2016 On Ca…  11475  0 to 3…
 2 Piedmont International University NC       20174  2016 On Ca…  11451  30,001…
 3 Piedmont International University NC       20174  2016 On Ca…  16229  48_001…
 4 Piedmont International University NC       20174  2016 On Ca…  15592  75,001…
 5 Piedmont International University NC       20514  2017 On Ca…  11668. 0 to 3…
 6 Piedmont International University NC       20514  2017 On Ca…  11644. 30,001…
 7 Piedmont International University NC       20514  2017 On Ca…  16503. 48_001…
 8 Piedmont International University NC       20514  2017 On Ca…  15855. 75,001…
 9 Piedmont International University NC       20514  2017 On Ca…      0  Over 1…
10 Piedmont International University NC       20829  2018 On Ca…  11848. 0 to 3…
# … with 209,002 more rows, and abbreviated variable names ¹​total_price,
#   ²​net_cost, ³​income_lvl
…
